{
  "status": "ok",
  "totalResults": 362,
  "articles": [
    {
      "source": {
        "id": "the-wall-street-journal",
        "name": "The Wall Street Journal"
      },
      "author": "Anne Tergesen",
      "title": "Social Security Benefits to Increase 8.7% in 2023",
      "description": "The supersize COLA is the biggest boost to benefits in four decades.",
      "url": "https://www.wsj.com/articles/social-security-benefits-to-increase-in-2023-11665665206",
      "urlToImage": "https://images.wsj.net/im-642829/social",
      "publishedAt": "2022-10-13T12:46:00Z",
      "content": "Social Security checks will be 8.7% bigger in 2023, the largest \r\ncost-of-living adjustment to benefits in four decades, the Social Security Administration said Thursday.The extra funds will provide … [+314 chars]"
    },
    {
      "source": {
        "id": "the-wall-street-journal",
        "name": "The Wall Street Journal"
      },
      "author": "Berber Jin",
      "title": "Venture Firms Are Betting on Public Tech Stocks as Startup Market Stalls - The Wall Street Journal",
      "description": "Startup investors, known for making risky bets on unproven companies, are taking advantage of lower share prices following a market rout.",
      "url": "https://www.wsj.com/articles/venture-firms-are-betting-on-public-tech-stocks-as-startup-market-stalls-11665653404",
      "urlToImage": "https://images.wsj.net/im-642905/social",
      "publishedAt": "2022-10-13T09:36:16Z",
      "content": "Venture-capital firms are jumping into the stock market, buying up battered shares in publicly traded tech companies at a time when they are investing less in the startups that have long been their f… [+237 chars]"
    },
    {
      "source": {
        "id": "the-wall-street-journal",
        "name": "The Wall Street Journal"
      },
      "author": "Yang Jie and Kosaku Narioka",
      "title": "TSMC Reports Record Profit, Gains Exemption From U.S. Chip Curbs on China",
      "description": "The world’s largest contract chip maker was boosted by strong sales of its cutting-edge chips used in smartphones and other devices.",
      "url": "https://www.wsj.com/articles/tsmc-reports-record-profit-gains-exemption-from-u-s-chip-curbs-on-china-11665648006",
      "urlToImage": "https://images.wsj.net/im-643265/social",
      "publishedAt": "2022-10-13T08:00:00Z",
      "content": "Taiwan Semiconductor Manufacturing Co. said that its third-quarter net profit rose 80% to a new record, and that it had been granted a one-year exemption from new U.S. restrictions on Chinas chip sec… [+255 chars]"
    },
    {
      "source": {
        "id": "the-wall-street-journal",
        "name": "The Wall Street Journal"
      },
      "author": "Jiyoung Sohn",
      "title": "Samsung Gets One-Year Exemption From New U.S. Chip Restrictions on China",
      "description": "Samsung received a one-year exemption from new U.S. restrictions that block exports of advanced chips and related equipment to China.",
      "url": "https://www.wsj.com/articles/samsung-gets-one-year-exemption-from-new-u-s-chip-restrictions-on-china-11665639994",
      "urlToImage": "https://images.wsj.net/im-643247/social",
      "publishedAt": "2022-10-13T05:51:49Z",
      "content": "SEOULSamsung Electronics has been granted a one-year exemption from new U.S. restrictions that block exports of advanced chips and related equipment to China, according to people familiar with the ma… [+359 chars]"
    },
    {
      "source": {
        "id": "the-wall-street-journal",
        "name": "The Wall Street Journal"
      },
      "author": "Nick Timiraos",
      "title": "美联储会议纪要显示官员担心通胀持续高企 - Wall Street Journal",
      "description": "<ol><li>美联储会议纪要显示官员担心通胀持续高企  Wall Street Journal\r\n</li><li>美联储会议纪要：推动加息至“更限制”区间然后放慢节奏评估影响提供者财联社  英为财情\r\n</li><li>美联储会议纪要显示11月和12月或将继续加息  Sina\r\n</li><li>美国股市走软，受美联储会议纪要和通胀数据影响  Wall Street Journal\r\n</li><li>联储局拟调整加息 避免经济下行风险  星洲网 Sin Chew Daily\r\n</li><li>在Googl…",
      "url": "https://cn.wsj.com/articles/美联储会议纪要显示官员们对持续的高通胀表示担忧-11665618305",
      "urlToImage": "https://images.wsj.net/im-641809/social",
      "publishedAt": "2022-10-13T02:41:00Z",
      "content": ""
    },
    {
      "source": {
        "id": "the-wall-street-journal",
        "name": "The Wall Street Journal"
      },
      "author": null,
      "title": "中国财经媒体报道汇总：央行：继续推动数字人民币业务持续健康发展 - Wall Street Journal",
      "description": "央行推出2,000亿元保交楼专项PSL，预计激活1万亿元存量楼盘；多地支持农民进城购房：给予购房补贴、享城区人口同等政策；机构预计9月CPI同比增速均值为3%，PPI同比增速均值为1.1%。",
      "url": "https://cn.wsj.com/articles/中国财经媒体报道汇总-央行-继续推动数字人民币业务持续健康发展-11665621305",
      "urlToImage": "https://images.wsj.net/im-634269/social",
      "publishedAt": "2022-10-13T00:35:00Z",
      "content": ""
    },
    {
      "source": {
        "id": "the-wall-street-journal",
        "name": "The Wall Street Journal"
      },
      "author": "Chelsey Dulaney, Paul Vigna",
      "title": "美国股市走软，受美联储会议纪要和通胀数据影响 - Wall Street Journal",
      "description": "<ol><li>美国股市走软，受美联储会议纪要和通胀数据影响  Wall Street Journal\r\n</li><li>美联储会议纪要：推动加息至“更限制”区间然后放慢节奏评估影响提供者财联社  英为财情\r\n</li><li>美联储会议纪要：近期达到限制性利率更担心加息过少多人强调要调整步伐  华尔街见闻\r\n</li><li>美联储会议纪要：倾向于近期实现加息至限制性的利率水平  Sina\r\n</li><li>美联储会议纪要显示官员担心通胀持续高企  Wall Street Journal\r\n</li><li…",
      "url": "https://cn.wsj.com/articles/美国股市走软-受美联储会议纪要和通胀数据影响-11665616806",
      "urlToImage": "https://images.wsj.net/im-642357/social",
      "publishedAt": "2022-10-12T23:20:00Z",
      "content": "9\r\n50011.810.3%3,577.0328.340.1%29,210.859.090.1%10,417.10202281520%\r\n(PepsiCo Inc., PEP)6.804.2%169.39\r\n(Delta..."
    },
    {
      "source": {
        "id": "the-wall-street-journal",
        "name": "The Wall Street Journal"
      },
      "author": "The Editorial Board",
      "title": "Opinion | How Not to Punish the Saudis on Oil Prices - The Wall Street Journal",
      "description": "<ol><li>Opinion | How Not to Punish the Saudis on Oil Prices  The Wall Street Journal\r\n</li><li>Saudi Arabia official responds to Biden's threats over oil cuts  CNN\r\n</li><li>Biden warns there will be 'consequences' for Saudi Arabia after oil production cut  …",
      "url": "https://www.wsj.com/articles/how-not-to-punish-the-saudis-opec-biden-democrats-saudi-arabia-oil-production-11665612992",
      "urlToImage": "https://images.wsj.net/im-643143/social",
      "publishedAt": "2022-10-12T22:43:00Z",
      "content": "President Biden and Democrats in Congress are furious at Saudi Arabia for pushing the OPEC cartel to reduce oil production, and theyre threatening consequences. The ingenious plan seems to be to tell… [+380 chars]"
    },
    {
      "source": {
        "id": "the-wall-street-journal",
        "name": "The Wall Street Journal"
      },
      "author": "Angus Loten",
      "title": "Souring Economy Gives Tech Freelancers a Lift - The Wall Street Journal",
      "description": "New wave of IT freelancers prefer to tackle digital projects, then move on, recruiters say",
      "url": "https://www.wsj.com/articles/souring-economy-gives-tech-freelancers-a-lift-11665608271",
      "urlToImage": "https://images.wsj.net/im-642974/social",
      "publishedAt": "2022-10-12T20:57:00Z",
      "content": "Facing economic headwinds, companies are filling gaps in information-technology teams with freelance software developers, coders and other high-skilled tech workers, while pulling back on efforts to … [+4475 chars]"
    },
    {
      "source": {
        "id": "the-wall-street-journal",
        "name": "The Wall Street Journal"
      },
      "author": "Jennifer Calfas",
      "title": "ACT Test Scores Drop to Lowest Levels in More Than 30 Years - The Wall Street Journal",
      "description": "<ol><li>ACT Test Scores Drop to Lowest Levels in More Than 30 Years  The Wall Street Journal\r\n</li><li>San Diego Unified test scores show impact of pandemic on students  CBS 8 San Diego\r\n</li><li>ACT test scores drop to lowest in 30 years in pandemic slide  T…",
      "url": "https://www.wsj.com/articles/act-test-scores-drop-to-lowest-levels-in-more-than-30-years-11665593614",
      "urlToImage": "https://images.wsj.net/im-642705/social",
      "publishedAt": "2022-10-12T19:53:00Z",
      "content": "The average score on the ACT, a college admissions test, fell to its lowest level in more than three decades, the organization behind the exam said Wednesday.\r\nTest takers from the class of 2022 scor… [+152 chars]"
    },
    {
      "source": {
        "id": "the-wall-street-journal",
        "name": "The Wall Street Journal"
      },
      "author": "Christopher Weaver and Dan Frosch",
      "title": "U.S. Reaches Agreement With Victims of Doctor Who Abused Native American Patients - The Wall Street Journal",
      "description": "The U.S. government reached a $14.5 million settlement agreement with eight men who said in civil suits that they were sexually assaulted by an Indian Health Service pediatrician when they were young.",
      "url": "https://www.wsj.com/articles/u-s-reaches-agreement-with-victims-of-doctor-who-abused-native-american-patients-11665587161",
      "urlToImage": "https://images.wsj.net/im-642609/social",
      "publishedAt": "2022-10-12T18:26:00Z",
      "content": "The U.S. government reached a deal with victims of a pedophile doctor who\r\n sexually assaulted Native American boys for decades at federal hospitals in Montana and South Dakota, people familiar with … [+319 chars]"
    },
    {
      "source": {
        "id": "the-wall-street-journal",
        "name": "The Wall Street Journal"
      },
      "author": "Google News",
      "title": "Deadly Ebola Outbreak Spreads to Uganda's Capital - The Wall Street Journal",
      "description": "The outbreak is raising fears of a wider spread of the deadly Sudan strain for which there are no proven vaccines or antiviral treatments.",
      "url": "https://www.wsj.com/articles/deadly-ebola-outbreak-spreads-to-ugandas-capital-11665598506",
      "urlToImage": "https://images.wsj.net/im-642324/social",
      "publishedAt": "2022-10-12T18:15:00Z",
      "content": "KAMPALA UgandaA deadly outbreak of the Ebola virus has spread from rural Uganda into the capital, Kampala, the countrys Health Ministry said Wednesday, raising further fears of a wider spread of the … [+447 chars]"
    },
    {
      "source": {
        "id": "the-wall-street-journal",
        "name": "The Wall Street Journal"
      },
      "author": "Aylin Woodward",
      "title": "Scarred Dinosaur 'Mummy' Suggests Such Fossils Aren't Quite So Rare - The Wall Street Journal",
      "description": "<ol><li>Scarred Dinosaur 'Mummy' Suggests Such Fossils Aren't Quite So Rare  The Wall Street Journal\r\n</li><li>Astonishing dinosaur mummy has 'glittering' skin that was punctured and ripped by ancient crocs  Livescience.com\r\n</li><li>Incredible dinosaur 'mumm…",
      "url": "https://www.wsj.com/articles/dinosaur-mummy-fossilized-skin-finding-11665593950",
      "urlToImage": "https://images.wsj.net/im-642933/social",
      "publishedAt": "2022-10-12T18:00:00Z",
      "content": "Most dinosaur specimens are just fossilized bones, but a handful also \r\nhave fossilized soft tissuesand a new look at a duck-billed dinosaur specimen nicknamed Dakota suggests that these dinosaur mum… [+518 chars]"
    },
    {
      "source": {
        "id": "the-wall-street-journal",
        "name": "The Wall Street Journal"
      },
      "author": "Alyssa Lukpat and Christine Mai-Duc",
      "title": "Protesters Swarm LA City Council Meeting After Audio Leak of Racist Comments...",
      "description": "Nury Martinez said she would take a leave of absence but hasn’t resigned after a recording was released of her racist comments about a colleague’s son",
      "url": "https://www.wsj.com/articles/protesters-swarm-los-angeles-city-council-meeting-after-audio-leak-of-racist-comments-11665585319",
      "urlToImage": "https://images.wsj.net/im-642496/social",
      "publishedAt": "2022-10-12T15:13:51Z",
      "content": "Protesters interrupted a Los Angeles City Council meeting Tuesday, joining the growing number of calls for the resignation of a \r\ncouncilwoman who made racist comments on a leaked audio recording.Doz… [+297 chars]"
    },
    {
      "source": {
        "id": "the-wall-street-journal",
        "name": "The Wall Street Journal"
      },
      "author": "Daniela Hernandez",
      "title": "Scientists Transplant Human Tissue into Rat Brains, Opening Door to New Research",
      "description": "Human cells fused into the brains of rats and mice could help explore causes of autism, schizophrenia.",
      "url": "https://www.wsj.com/articles/scientists-transplant-human-tissue-into-rat-brains-opening-door-to-new-research-11665586832",
      "urlToImage": "https://images.wsj.net/im-642597/social",
      "publishedAt": "2022-10-12T15:02:08Z",
      "content": "Bioengineered human tissue transplanted into rat brains generated hybrid neural circuits that affected the animals behavior, researchers said, expanding a pathway for exploring brain development and … [+348 chars]"
    },
    {
      "source": {
        "id": "the-wall-street-journal",
        "name": "The Wall Street Journal"
      },
      "author": "wsj",
      "title": "How Diabetes Drug Became Talk of Hollywood, Tech and Hamptons...",
      "description": "Ozempic and other injections meant to treat chronic medical conditions are in high demand among elites looking to lose a little weight.",
      "url": "https://www.wsj.com/articles/ozempic-weight-loss-diabetes-drug-11665520937",
      "urlToImage": "https://images.wsj.net/im-640441/social",
      "publishedAt": "2022-10-12T13:00:04Z",
      "content": "How a Diabetes Drug Became the Talk of Hollywood, Tech and the HamptonsListen to article(2 minutes)At least once a day, Nancy Rahnama’s clinical nutrition practice in Beverly Hills, Calif., gets a ca… [+692 chars]"
    },
    {
      "source": {
        "id": "the-wall-street-journal",
        "name": "The Wall Street Journal"
      },
      "author": "Raffaele Huang",
      "title": "U.S. Suppliers Halt Operations at Top Chinese Memory Chip Maker",
      "description": "U.S. chip equipment suppliers are pulling out staff based at China’s leading memory chip maker and pausing business activities there as they assess the impact of Commerce Department semiconductor export restrictions.",
      "url": "https://www.wsj.com/articles/u-s-suppliers-halt-operations-at-top-chinese-memory-chip-maker-11665573761",
      "urlToImage": "https://images.wsj.net/im-642387/social",
      "publishedAt": "2022-10-12T11:26:03Z",
      "content": "BEIJINGU.S. chip equipment suppliers are pulling out staff based at Chinas leading memory chip maker and pausing business activities there, according to people familiar with the matter, as they rush … [+448 chars]"
    },
    {
      "source": {
        "id": "the-wall-street-journal",
        "name": "The Wall Street Journal"
      },
      "author": "Sabela Ojea",
      "title": "PepsiCo Raises Guidance Again as Higher Prices Lift Sales",
      "description": "The snacks-and-drinks company’s third-quarter sales grew by nearly 9% as average prices were up 17%.",
      "url": "https://www.wsj.com/articles/pepsico-raises-guidance-again-as-higher-prices-lift-sales-11665570888",
      "urlToImage": "https://images.wsj.net/im-640424/social",
      "publishedAt": "2022-10-12T10:34:00Z",
      "content": "PepsiCo reported a nearly 9% rise in third-quarter revenue and \r\nagain lifted its sales outlook for the year as it continued to increase prices on its snacks and drinks amid rising costs.The company … [+314 chars]"
    },
    {
      "source": {
        "id": "the-wall-street-journal",
        "name": "The Wall Street Journal"
      },
      "author": "Laura Forman",
      "title": "Cruise Stocks Don’t Lead to Buried Treasure",
      "description": "Regulators are allowing more ships in the water, capacity is up, and mask and vaccine restrictions are lifting. So why are investors bailing?",
      "url": "https://www.wsj.com/articles/cruise-stocks-dont-lead-to-buried-treasure-11665570602",
      "urlToImage": "https://images.wsj.net/im-640849/social",
      "publishedAt": "2022-10-12T10:30:00Z",
      "content": "Cruise-line stocks have been taking on water since Covid-19 hit, but lately investors have really abandoned ship. Hovering over $6 a share, Carnival stock \r\nhasnt been this cheap since Boyz II Men, T… [+511 chars]"
    },
    {
      "source": {
        "id": "the-wall-street-journal",
        "name": "The Wall Street Journal"
      },
      "author": "Denise Roland",
      "title": "Philips to Take $1.3 Billion Write-Down on Sleep-Apnea Business - The Wall Street Journal",
      "description": "The Dutch healthcare conglomerate warned that worse-than-expected disruptions in its supply chain would hurt third-quarter sales and profit as it grapples with the fallout from a recall of its sleep-apnea devices.",
      "url": "https://www.wsj.com/articles/philips-to-take-1-3-billion-write-down-on-sleep-apnea-business-11665570453",
      "urlToImage": "https://images.wsj.net/im-642358/social",
      "publishedAt": "2022-10-12T10:27:00Z",
      "content": "Royal Philips NV said it would write down the value of its sleep and respiratory care business by 1.3 billion, equivalent to $1.26 billion, as it grapples with the fallout from a \r\nhuge recall of dev… [+462 chars]"
    },
    {
      "source": {
        "id": "the-wall-street-journal",
        "name": "The Wall Street Journal"
      },
      "author": "Paul Hannon",
      "title": "英国央行将于周五结束支持养老基金的债券购买 - Wall Street Journal",
      "description": "英国央行将于周五结束支持养老基金的债券购买  Wall Street Journal在Google 新闻上查看完整报道",
      "url": "https://cn.wsj.com/articles/英国央行将于周五结束支持养老基金的债券购买-11665569706",
      "urlToImage": "https://images.wsj.net/im-632753/social",
      "publishedAt": "2022-10-12T10:15:00Z",
      "content": "928(LDI)\r\n(Andrew Bailey)\r\n..."
    },
    {
      "source": {
        "id": "the-wall-street-journal",
        "name": "The Wall Street Journal"
      },
      "author": "Jamie Chisholm",
      "title": "英国央行强调挺市措施将停止后，英国债券收益率升至近14年高点 - Wall Street Journal",
      "description": "英国政府债券收益率上升，此前英国央行强调将按计划在本周末停止支撑市场的干预措施，但政府债券抛盘有限，因有报道称，英国央行私下告诉银行届人士，如果有必要，可能提供进一步支持。",
      "url": "https://cn.wsj.com/articles/英国央行强调挺市措施将停止后-英国债券收益率升至近14年高点-11665562206",
      "urlToImage": "https://images.wsj.net/im-632457/social",
      "publishedAt": "2022-10-12T08:10:00Z",
      "content": "1.09/0.5%1.1016102.44.464%2008\r\n9650710\r\nMarketWatch\r\n..."
    },
    {
      "source": {
        "id": "the-wall-street-journal",
        "name": "The Wall Street Journal"
      },
      "author": null,
      "title": "中国财经媒体报道汇总：央行罕见深夜发布：M2、社融、新增贷款增速均超预期 - Wall Street Journal",
      "description": "央行：增强人民币汇率弹性，坚决抑制汇率大起大落；为稳楼市再出“大招”，多地政府大手笔回购商品房；人民日报：“躺平”不可取，“躺赢”不可能，坚持动态清零才能最大程度地避免疫情失控造成巨大损失。",
      "url": "https://cn.wsj.com/articles/中国财经媒体报道汇总-央行罕见深夜发布数据-m2-社融-新增贷款增速均超预期-11665534906",
      "urlToImage": "https://images.wsj.net/im-448112/social",
      "publishedAt": "2022-10-12T00:54:00Z",
      "content": "**M2**\r\n--9M212.1%0.12.4781083.5362459LPR\r\n****\r\n..."
    },
    {
      "source": {
        "id": "the-wall-street-journal",
        "name": "The Wall Street Journal"
      },
      "author": "Kathryn Hardison",
      "title": "Cameco, Brookfield Renewable Partners to Buy Westinghouse Electric Co. for $7.88 Billion",
      "description": "The two companies, along with institutional partners, are forming a strategic partnership to acquire the nuclear-services business.",
      "url": "https://www.wsj.com/articles/cameco-brookfield-renewable-partners-to-buy-westinghouse-electric-co-for-7-88-billion-11665524511",
      "urlToImage": "https://images.wsj.net/im-642205/social",
      "publishedAt": "2022-10-11T21:41:00Z",
      "content": "Cameco and Brookfield Renewable Partners said they will buy Westinghouse Electric Co. in a deal that will boost nuclear power, an energy resource reinvigorated by the need to reduce the use of carbon… [+272 chars]"
    },
    {
      "source": {
        "id": "the-wall-street-journal",
        "name": "The Wall Street Journal"
      },
      "author": "The Wall Street Journal",
      "title": "How Status Drives Cultural Change",
      "description": "To maintain their positions, the normals conform to social conventions, even as they aspire to higher status. Individuals’ decisions about when to switch from one convention to a new one drive cultural changes. – Wall Street Journal",
      "url": "https://www.wsj.com/articles/status-and-culture-book-review-making-the-cut-11665151509",
      "urlToImage": "https://images.wsj.net/im-637611/social",
      "publishedAt": "2022-10-11T21:01:00Z",
      "content": "When W. David Marx was 8 years old, he saw a photo of the Beatles on a cassette tape of their early hits. With their moptop haircuts, he thought they looked just like him and his brotherand many othe… [+799 chars]"
    },
    {
      "source": {
        "id": "the-wall-street-journal",
        "name": "The Wall Street Journal"
      },
      "author": "Rebecca Ballhaus, Brody Mullins, Chad Day, John West, Joe Palazzolo and James V. Grimaldi",
      "title": "Federal Officials Trade Stock in Companies Their Agencies Oversee...",
      "description": "Hidden records show thousands of senior executive branch employees owned shares of companies whose fates were directly affected by their employers’ actions, a Wall Street Journal investigation found.",
      "url": "https://www.wsj.com/articles/government-officials-invest-in-companies-their-agencies-oversee-11665489653",
      "urlToImage": "https://images.wsj.net/im-641432/social",
      "publishedAt": "2022-10-11T18:43:40Z",
      "content": "Thousands of officials across the governments executive branch reported owning or trading stocks that stood to rise or fall with decisions their agencies made, a Wall Street Journal investigation has… [+393 chars]"
    },
    {
      "source": {
        "id": "the-wall-street-journal",
        "name": "The Wall Street Journal"
      },
      "author": "David Wainer",
      "title": "Merck’s Patent Cliff Doesn’t Look So Frightening Anymore",
      "description": "Merck could be sitting on a blockbuster from a recent acquisition that would help reduce dependence on cancer drug Keytruda.",
      "url": "https://www.wsj.com/articles/mercks-patent-cliff-doesnt-look-so-frightening-anymore-11665505824",
      "urlToImage": "https://images.wsj.net/im-640848/social",
      "publishedAt": "2022-10-11T16:33:00Z",
      "content": "Many of the countrys largest pharmaceutical companies, from Merck &amp; Co. to Bristol Myers Squibb are under pressure to do deals right now because they are staring at huge patent cliffs for their t… [+533 chars]"
    },
    {
      "source": {
        "id": "the-wall-street-journal",
        "name": "The Wall Street Journal"
      },
      "author": "wsj",
      "title": "There's New Menace Stalking Suburbia. Meet the McBasement...",
      "description": "Limits on above-ground mansion sizes lead to mammoth grottos with tennis courts and whiskey-tasting rooms. Beverly Hills pushes back: `Violence against the land’",
      "url": "https://www.wsj.com/articles/theres-a-new-menace-stalking-suburbia-meet-the-mcbasement-11665497875",
      "urlToImage": "https://images.wsj.net/im-640212/social",
      "publishedAt": "2022-10-11T15:00:03Z",
      "content": "There’s a New Menace Stalking Suburbia. Meet the McBasement.Listen to article(2 minutes)When Sterling McDavid’s parents bought a roughly 9,000-square-foot home on Aspen’s Red Mountain, the 33-year-ol… [+924 chars]"
    },
    {
      "source": {
        "id": "the-wall-street-journal",
        "name": "The Wall Street Journal"
      },
      "author": "Sharon Terlep and Suzanne Vranica",
      "title": "Peloton Co-Founder John Foley Faced Repeated Margin Calls From Goldman Sachs as Stock Slumped",
      "description": "Goldman Sachs asked the former CEO of the fitness-equipment maker to provide fresh funds or additional collateral for personal loans the bank had extended to him. Leaving the board gives Mr. Foley flexibility to sell or pledge more Peloton shares.",
      "url": "https://www.wsj.com/articles/peloton-co-founder-john-foley-faced-repeated-margin-calls-from-goldman-sachs-as-stock-slumped-11665488908",
      "urlToImage": "https://images.wsj.net/im-641002/social",
      "publishedAt": "2022-10-11T11:48:00Z",
      "content": "John Foley, the co-founder and former chief executive of Peloton Interactive faced repeated margin calls on money he borrowed against his Peloton holdings before he \r\nleft the fitness companys board … [+353 chars]"
    },
    {
      "source": {
        "id": "the-wall-street-journal",
        "name": "The Wall Street Journal"
      },
      "author": "Chelsey Dulaney and Paul Hannon",
      "title": "Bank of England Further Expands Bond-Market Rescue - The Wall Street Journal",
      "description": "<ol><li>Bank of England Further Expands Bond-Market Rescue  The Wall Street Journal\r\n</li><li>Bank of England intervenes in bond markets again, warns of 'material risk' to UK financial stability  CNBC\r\n</li><li>BOE Expands Bond-Buying Scope to Avert 'Fire Sal…",
      "url": "https://www.wsj.com/articles/boe-adds-index-linked-gilts-to-bond-purchase-program-11665470476",
      "urlToImage": "https://images.wsj.net/im-641283/social",
      "publishedAt": "2022-10-11T11:29:00Z",
      "content": "LONDONThe Bank of England extended support targeted at pension funds for the second day in a row, the latest attempt to contain the fallout of a furious bond-market selloff that has threatened U.K. f… [+420 chars]"
    },
    {
      "source": {
        "id": "the-wall-street-journal",
        "name": "The Wall Street Journal"
      },
      "author": "Jared Malsin",
      "title": "俄罗斯在大规模轰炸乌克兰后恢复空袭 - Wall Street Journal",
      "description": "<ol><li>俄罗斯在大规模轰炸乌克兰后恢复空袭  Wall Street Journal\r\n</li><li>烏南導彈襲擊12死美德領袖批俄核威脅| DW | 10.10.2022  DW\r\n</li><li>扎波罗热遇袭死亡增至13人泽连斯基再次呼吁西方提供更多防空系统  RFI - 法国国际广播电台\r\n</li><li>俄罗斯对乌克兰扎波罗热的袭击造成13人死亡，数十人受伤  美国之音中文网 - VOA Mandarin\r\n</li><li>烏克蘭扎波羅熱連夜遭12次轟炸 烏軍誓言東進  NTDTV\r\n<…",
      "url": "https://cn.wsj.com/articles/俄罗斯在大规模轰炸乌克兰后恢复空袭-11665486606",
      "urlToImage": "https://images.wsj.net/im-641306/social",
      "publishedAt": "2022-10-11T11:10:00Z",
      "content": ""
    },
    {
      "source": {
        "id": "the-wall-street-journal",
        "name": "The Wall Street Journal"
      },
      "author": "Denise Roland",
      "title": "AstraZeneca Looks to Cancer, RSV Drugs for Growth as Covid-Vaccine Demand Wanes",
      "description": "The British drugmaker is reducing production of its Covid-19 vaccine and betting on new therapies for other conditions.",
      "url": "https://www.wsj.com/articles/astrazeneca-looks-to-cancer-rsv-drugs-for-growth-as-covid-vaccine-demand-wanes-11665486001",
      "urlToImage": "https://images.wsj.net/im-640743/social",
      "publishedAt": "2022-10-11T11:00:00Z",
      "content": "AstraZeneca PLC produced one of the worlds most widely used Covid-19 vaccines. As \r\ndemand for the shot ebbs, the company is betting on tackling breast cancer and a different respiratory virus.After … [+307 chars]"
    },
    {
      "source": {
        "id": "the-wall-street-journal",
        "name": "The Wall Street Journal"
      },
      "author": "Mike Colias",
      "title": "GM Looks to Parlay Battery Work Into New Energy Business - The Wall Street Journal",
      "description": "The division would sell services to let EV owners manage power for residential and commercial buildings.",
      "url": "https://www.wsj.com/articles/gm-looks-to-parlay-battery-work-into-new-energy-business-11665458446",
      "urlToImage": "https://images.wsj.net/im-641153/social",
      "publishedAt": "2022-10-11T10:00:00Z",
      "content": "General Motors is starting an energy business to sell power-storage units and services to homeowners and commercial clients, an offshoot of the auto makers battery-development \r\nwork for electric veh… [+248 chars]"
    },
    {
      "source": {
        "id": "the-wall-street-journal",
        "name": "The Wall Street Journal"
      },
      "author": null,
      "title": "视频分析：克里米亚大桥可能是如何被炸的？ - The Wall Street Journal",
      "description": "<ol><li>视频分析：克里米亚大桥可能是如何被炸的？  The Wall Street Journal\r\n</li><li>克里米亚大桥爆炸：普京指责乌克兰实施“恐怖主义行为”  BBC\r\n</li><li>专家分析克里米亚大桥爆炸: 极可能是乌克兰所为  DW\r\n</li><li>据信为了报复克里米亚大桥被炸 俄罗斯轰炸基辅造成多人死伤  美国之音中文网 - VOA Mandarin\r\n</li><li>組圖：克里米亞大橋爆炸隔天 通行車輛大排長龍  大纪元\r\n</li><li>在Google 新闻上查看完…",
      "url": "https://www.wsj.com/video/china/3FD8777C-6FEB-4375-AC34-CABEE85B897D.html",
      "urlToImage": "http://images.wsj.net/im-640596?width=1280&height=720",
      "publishedAt": "2022-10-11T06:03:00Z",
      "content": "9/28/202215%Shelby HollidayElizabeth Smelov"
    },
    {
      "source": {
        "id": "the-wall-street-journal",
        "name": "The Wall Street Journal"
      },
      "author": "Jacky Wong",
      "title": "美国全面压制中国芯片行业 - Wall Street Journal",
      "description": "<ol><li>美国全面压制中国芯片行业  Wall Street Journal\r\n</li><li>美芯片管制新规冲击中国半导体及科技产业 股市周一暴跌  美国之音中文网 - VOA Mandarin\r\n</li><li>專家：美芯片管制是對中共的高科技消耗戰  大纪元\r\n</li><li>美国加码芯片出口限制，中国新兴制造商恐遇挫  Wall Street Journal\r\n</li><li>美对华晶片新规已成鹰派共识彭博社引述分析师报导：没有可能和解  RFI - 法国国际广播电台\r\n</li><li>在…",
      "url": "https://cn.wsj.com/articles/美国全面压制中国芯片行业-11665460807",
      "urlToImage": "https://images.wsj.net/im-640411/social",
      "publishedAt": "2022-10-11T04:15:00Z",
      "content": ""
    },
    {
      "source": {
        "id": "the-wall-street-journal",
        "name": "The Wall Street Journal"
      },
      "author": "Greg Robb",
      "title": "伯南克：美联储不应利用利率政策来“微调”金融稳定风险 - Wall Street Journal",
      "description": "<ol><li>伯南克：美联储不应利用利率政策来“微调”金融稳定风险  Wall Street Journal\r\n</li><li>诺贝尔经济学奖授予美联储前主席伯南克等3位经济学家  瞭望东方周刊\r\n</li><li>2022年诺贝尔经济学奖奖励包括美联储前主席本·伯南克在内三位美国学者  RFI - 法国国际广播电台\r\n</li><li>三位美国经济学家获2022年诺贝尔经济学奖  美国之音中文网 - VOA Mandarin\r\n</li><li>美联储前主席伯南克等3位经济学家获得诺贝尔经济学奖  华尔街见…",
      "url": "https://cn.wsj.com/articles/伯南克-美联储不应利用利率政策来-微调-金融稳定风险-11665451805",
      "urlToImage": "https://images.wsj.net/im-560784/social",
      "publishedAt": "2022-10-11T01:30:00Z",
      "content": "(Ben Bernanke)\r\n(Brookings Institution)\r\n..."
    },
    {
      "source": {
        "id": "the-wall-street-journal",
        "name": "The Wall Street Journal"
      },
      "author": "Kristin Broughton, Jennifer Williams-Alvarez",
      "title": "XPO Logistics Appoints CFO, Assembles Board - The Wall Street Journal",
      "description": "Carl Anderson, who most recently served as finance chief of Meritor, will start as CFO on Nov. 8",
      "url": "https://www.wsj.com/articles/xpo-logistics-appoints-cfo-assembles-board-11665435096",
      "urlToImage": "https://images.wsj.net/im-641028/social",
      "publishedAt": "2022-10-11T00:38:00Z",
      "content": "Carl Anderson\r\nwill take over as chief financial officer on Nov. 8, Greenwich, Conn.-based XPO Logistics said Monday. Mr. Anderson was most recently finance chief at Meritor Inc., an auto-parts suppl… [+3857 chars]"
    },
    {
      "source": {
        "id": "the-wall-street-journal",
        "name": "The Wall Street Journal"
      },
      "author": "The Editorial Board",
      "title": "Opinion | Ben Bernanke Wins a Nobel, in Theory - The Wall Street Journal",
      "description": "<ol><li>Opinion | Ben Bernanke Wins a Nobel, in Theory  The Wall Street Journal\r\n</li><li>Former Fed Chair Ben Bernanke wins 2022 Nobel prize for economics  CNBC Television\r\n</li><li>Ex-Fed Chair Bernanke Among Winners for Work on Financial Crises  The New Yo…",
      "url": "https://www.wsj.com/articles/ben-bernanke-wins-a-nobel-in-theory-11665442267",
      "urlToImage": "https://images.wsj.net/im-641129/social",
      "publishedAt": "2022-10-10T22:51:00Z",
      "content": "An old joke has it that economists like to grouse that something may work in practice but does it work in theory? That comes to mind with the news that former Federal Reserve Chairman Ben Bernanke is… [+441 chars]"
    },
    {
      "source": {
        "id": "the-wall-street-journal",
        "name": "The Wall Street Journal"
      },
      "author": "The Editorial Board",
      "title": "More Missile Defenses for Ukraine - WSJ - The Wall Street Journal",
      "description": "<ol><li>More Missile Defenses for Ukraine - WSJ  The Wall Street Journal\r\n</li><li>Russians suffer losses and attack on two fronts General Staff  Yahoo News\r\n</li><li>Russia's Estimated Losses Entering Day 230 of War, Including 62K Personnel  Newsweek\r\n</li><…",
      "url": "https://www.wsj.com/articles/more-missile-defenses-for-ukraine-11665441980",
      "urlToImage": "https://images.wsj.net/im-641109/social",
      "publishedAt": "2022-10-10T22:46:00Z",
      "content": "Russias missile assault on Kyiv and other Ukrainian cities on Monday is a reminder that the Kremlin retains a considerable capacity to wreak havoc. The best response is to provide Ukraine with more w… [+387 chars]"
    },
    {
      "source": {
        "id": "the-wall-street-journal",
        "name": "The Wall Street Journal"
      },
      "author": "Jacob Gershman",
      "title": "Judges Across U.S. Expand Gun Rights, Taking Cues From Supreme Court - The Wall Street Journal",
      "description": "<ol><li>Judges Across U.S. Expand Gun Rights, Taking Cues From Supreme Court  The Wall Street Journal\r\n</li><li>How the Supreme Court put gun control laws in jeopardy nationwide  CNN\r\n</li><li>View Full Coverage on Google News</li></ol>",
      "url": "https://www.wsj.com/articles/judges-across-u-s-expand-gun-rights-taking-cues-from-supreme-court-11665432175",
      "urlToImage": "https://images.wsj.net/im-640489/social",
      "publishedAt": "2022-10-10T20:58:00Z",
      "content": "The Supreme Courts decision this year \r\nto strengthen Second Amendment protections for carrying concealed weapons is starting to ripple through lower courts, with several judges citing the ruling to … [+458 chars]"
    },
    {
      "source": {
        "id": "the-wall-street-journal",
        "name": "The Wall Street Journal"
      },
      "author": "Alyssa Lukpat",
      "title": "Fast Food: See the U.S. Drive-Through Chains Ranked Quickest to Slowest",
      "description": "Customers waited longer in their cars at Chick-fil-A—8.5 minutes—than at 9 other U.S. restaurant chains, according to a recent study",
      "url": "https://www.wsj.com/articles/fast-food-drive-through-chains-ranked-quickest-to-slowest-list-11665427830",
      "urlToImage": "https://images.wsj.net/im-640468/social",
      "publishedAt": "2022-10-10T19:01:58Z",
      "content": "In a battle of restaurant chain drive-throughs, a new survey says KFCs is the quickest and Chick-fil-As is the slowest.\r\nChick-fil-A customers spent on average about 8.5 minutes waiting in line in th… [+246 chars]"
    },
    {
      "source": {
        "id": "the-wall-street-journal",
        "name": "The Wall Street Journal"
      },
      "author": "Nick Timiraos",
      "title": "Fed’s Brainard Says Rate Rises Will Slow Economy Over Time - The Wall Street Journal",
      "description": "<ol><li>Fed’s Brainard Says Rate Rises Will Slow Economy Over Time  The Wall Street Journal\r\n</li><li>Fed’s Brainard Nods to Global Risks but Stays Focused on Inflation  The New York Times\r\n</li><li>Brainard Offers Case for Caution as Fed Hikes Rates Aggressi…",
      "url": "https://www.wsj.com/articles/feds-brainard-says-rate-rises-will-slow-economy-over-time-11665423314",
      "urlToImage": "https://images.wsj.net/im-639836/social",
      "publishedAt": "2022-10-10T17:35:00Z",
      "content": "A senior Federal Reserve official cautioned it would take time for the central banks rapid rate rises this year to reduce inflation that has reached 40-year highs.\r\nMonetary policy will be restrictiv… [+300 chars]"
    },
    {
      "source": {
        "id": "the-wall-street-journal",
        "name": "The Wall Street Journal"
      },
      "author": "The Wall Street Journal",
      "title": "Tesla breaks its China factory delivery record but trails BYD - Fox Business",
      "description": "Tesla's factory in Shanghai recorded its largest-ever output, but so did its rival BYD. BYD produced nearly 95,000 electric vehicles while Tesla produced 83,000.",
      "url": "https://www.wsj.com/articles/tesla-breaks-its-china-factory-delivery-record-but-trails-byd-11665385009?mod=hp_lead_pos7",
      "urlToImage": "https://a57.foxnews.com/static.foxbusiness.com/foxbusiness.com/content/uploads/2021/12/0/0/Tesla-Recall.jpg?ve=1&tl=1",
      "publishedAt": "2022-10-10T14:28:49Z",
      "content": "Tesla Inc. hit a record of more than 83,000 electric-vehicle deliveries from its recently upgraded Shanghai factory in September, according to data released by the China Passenger Car Association.\r\nT… [+1846 chars]"
    },
    {
      "source": {
        "id": "the-wall-street-journal",
        "name": "The Wall Street Journal"
      },
      "author": "Dominique Mosbergen",
      "title": "Alzheimer’s Drugs Advance but Slowing Disease Remains a Challenge",
      "description": "Although Biogen and Eisai’s lecanemab cleared plaque from patients’ brains, researchers say the benefits may be limited",
      "url": "https://www.wsj.com/articles/alzheimers-drugs-advance-but-slowing-disease-remains-a-challenge-11665399601",
      "urlToImage": "https://images.wsj.net/im-637335/social",
      "publishedAt": "2022-10-10T11:04:00Z",
      "content": "Strong recent study results for an experimental Alzheimers treatment have exposed a gap between the changes such drugs can make in the brain and their potential limits in alleviating symptoms of \r\nth… [+340 chars]"
    },
    {
      "source": {
        "id": "the-wall-street-journal",
        "name": "The Wall Street Journal"
      },
      "author": "Steve Goldstein",
      "title": "美联储前主席伯南克与另外两位经济学家获得诺贝尔经济学奖 - Wall Street Journal",
      "description": "<ol><li>美联储前主席伯南克与另外两位经济学家获得诺贝尔经济学奖  Wall Street Journal\r\n</li><li>美联储前主席伯南克等三人 获诺贝尔经济学奖   Lianhe Zaobao\r\n</li><li>在Google 新闻上查看完整报道</li></ol>",
      "url": "https://cn.wsj.com/articles/美联储前主席伯南克与另外两位经济学家获得诺贝尔经济学奖-11665398406",
      "urlToImage": "https://images.wsj.net/im-621057/social",
      "publishedAt": "2022-10-10T10:40:00Z",
      "content": "·(Ben Bernanke)\r\n·(Douglas Diamond)·(Philip Dybvig)2080\r\nMarketWatch\r\n..."
    },
    {
      "source": {
        "id": "the-wall-street-journal",
        "name": "The Wall Street Journal"
      },
      "author": "Paul Hannon",
      "title": "Bank of England Offers Further Support for Pension Funds Amid Crisis - The Wall Street Journal",
      "description": "<ol><li>Bank of England Offers Further Support for Pension Funds Amid Crisis  The Wall Street Journal\r\n</li><li>Bank of England strengthens emergency stimulus to help ease market turmoil  CNBC\r\n</li><li>BoE doubles size of bond buy-backs as emergency plan nea…",
      "url": "https://www.wsj.com/articles/boe-offers-to-buy-more-gilts-launches-new-repo-facility-for-ldi-funds-11665384218",
      "urlToImage": "https://images.wsj.net/im-640310/social",
      "publishedAt": "2022-10-10T09:50:00Z",
      "content": "LONDONThe Bank of England on Monday offered to buy long-dated U.K. government bonds in larger amounts and said it would provide continuing support to pension funds that have been at the heart of the … [+404 chars]"
    },
    {
      "source": {
        "id": "the-wall-street-journal",
        "name": "The Wall Street Journal"
      },
      "author": "Rebecca Feng",
      "title": "中国芯片股下跌，美国上周加强对华出口限制 - Wall Street Journal",
      "description": "<ol><li>中国芯片股下跌，美国上周加强对华出口限制  Wall Street Journal\r\n</li><li>美祭出对华先进芯片出口管制后三星和SK海力士高度警觉  美国之音中文网 - VOA Mandarin\r\n</li><li>美啟用封殺華為模式 圍堵中共芯片業  epochtimes.com\r\n</li><li>社评：美国对自由贸易发起最野蛮的一击  环球网\r\n</li><li>中国抨击美国的芯片出口管制措施  美国之音中文网 - VOA Mandarin\r\n</li><li>在Google 新闻…",
      "url": "https://cn.wsj.com/articles/中国芯片股下跌-美国上周加强对华出口限制-11665378305",
      "urlToImage": "https://images.wsj.net/im-589350/social",
      "publishedAt": "2022-10-10T05:05:00Z",
      "content": "25Global XETF7%\r\n(Semiconductor Manufacturing International Co., 0981.HK, )2.7%(Shanghai Fudan Microelectronics Group Co., 1385.HK, )()(Advanced Micro-Fabrication Equipment Inc., 688012.SH,..."
    },
    {
      "source": {
        "id": "the-wall-street-journal",
        "name": "The Wall Street Journal"
      },
      "author": "Katherine Clarke",
      "title": "Malibu Mansion Sells For $100 Million...",
      "description": "Malibu Mansion Sells For $100 Million...\r\n\n \n \n \n (Third column, 9th story, link)\r\n\n \r\n\n \r\n\n \n Related stories:Fed's Inflation Fight Has Economists Fearing Unnecessarily Deep Downturn...\r\nYellen says OPEC oil cuts threaten global economy...",
      "url": "https://www.wsj.com/articles/malibu-mansion-sells-for-100-million-to-billionaire-media-mogul-11665360940",
      "urlToImage": "https://images.wsj.net/im-640245/social",
      "publishedAt": "2022-10-10T04:49:42Z",
      "content": "Billionaire media mogul Byron Allen has paid $100 million for a Malibu estate formerly owned by self-storage billionaire Tammy Hughes Gustavson, according to a person familiar with the situation. The… [+542 chars]"
    },
    {
      "source": {
        "id": "the-wall-street-journal",
        "name": "The Wall Street Journal"
      },
      "author": null,
      "title": "上周五市场回顾：黄金期货在9月就业报告公布后收低，但连续第二周上涨；铜期货下跌 - Wall Street Journal",
      "description": "<ol><li>上周五市场回顾：黄金期货在9月就业报告公布后收低，但连续第二周上涨；铜期货下跌  Wall Street Journal\r\n</li><li>美股延续跌势，扭转周初的涨势  Wall Street Journal\r\n</li><li>在Google 新闻上查看完整报道</li></ol>",
      "url": "https://cn.wsj.com/articles/上周五市场回顾-黄金期货在9月就业报告公布后收低-但连续第二周上涨-铜期货下跌-11665357905",
      "urlToImage": "https://images.wsj.net/im-378134/social",
      "publishedAt": "2022-10-09T23:25:00Z",
      "content": "630.152.1%29,296.79500104.862.8%3,639.66420.913.8%10,652.40\r\n6001.2%\r\n..."
    },
    {
      "source": {
        "id": "the-wall-street-journal",
        "name": "The Wall Street Journal"
      },
      "author": "wsj",
      "title": "Iran Protests Proving Durable Challenge to Islamic Republic...",
      "description": "The deep disaffection the demonstrations represent and the fact that they target a key pillar of the Islamic Republic and its foundational ideology make them a significant test.",
      "url": "https://www.wsj.com/articles/iran-protests-are-proving-a-durable-challenge-to-the-islamic-republic-11665319812",
      "urlToImage": "https://images.wsj.net/im-640164/social",
      "publishedAt": "2022-10-09T14:00:03Z",
      "content": "Iran Protests Are Proving a Durable Challenge to the Islamic Republic Listen to article(2 minutes)Three weeks after antigovernment protests erupted across Iran—sparked by the death of a woman detaine… [+1030 chars]"
    },
    {
      "source": {
        "id": "the-wall-street-journal",
        "name": "The Wall Street Journal"
      },
      "author": "Heather Haddon",
      "title": "Burger King’s New U.S. CEO Seeks to Restore Chain’s Luster",
      "description": "Parent company Restaurant Brands has installed new leadership and earmarked $400 million to boost advertising and revamp everything from restaurant design to the way its flagship burgers are constructed.",
      "url": "https://www.wsj.com/articles/burger-kings-new-u-s-ceo-seeks-to-restore-chains-luster-11665265987",
      "urlToImage": "https://images.wsj.net/im-639660/social",
      "publishedAt": "2022-10-09T11:10:46Z",
      "content": "Burger King is gearing up to reclaim lost ground in the \r\nbattle of the burger giants.For decades the No. 2 U.S. burger chain by sales behind McDonalds Corp., Burger King in 2020 slipped to the third… [+262 chars]"
    },
    {
      "source": {
        "id": "the-wall-street-journal",
        "name": "The Wall Street Journal"
      },
      "author": "Ian Lovett in Kyiv, Ukraine, and Ann M. Simmons in Moscow",
      "title": "Russia Scrambles to Reconnect Supply Lines to Crimea After Bridge Explosion - The Wall Street Journal",
      "description": "<ol><li>Russia Scrambles to Reconnect Supply Lines to Crimea After Bridge Explosion  The Wall Street Journal\r\n</li><li>Putin faces more grim choices after blast hits his prized Crimea bridge  CNN\r\n</li><li>Blast damages bridge, key supply route in Russia's wa…",
      "url": "https://www.wsj.com/articles/russia-scrambles-to-reconnect-supply-lines-to-crimea-after-bridge-explosion-11665309769",
      "urlToImage": "https://images.wsj.net/im-640156/social",
      "publishedAt": "2022-10-09T10:02:00Z",
      "content": "Russian rockets slammed into the southeastern Ukrainian city of Zaporizhzhia overnight as Moscow raced to restore transportation links to Crimea after \r\na major explosion damaged the bridge connectin… [+291 chars]"
    },
    {
      "source": {
        "id": "the-wall-street-journal",
        "name": "The Wall Street Journal"
      },
      "author": "Cheryl Winokur Munk",
      "title": "Four Mistakes Students and Parents Make When Getting Student Loans",
      "description": "Too many people and students borrow first for college, and contemplate the long-term impact later. They can pay the price.",
      "url": "https://www.wsj.com/articles/student-loan-mistakes-students-parents-college-11665175405",
      "urlToImage": "https://images.wsj.net/im-637853/social",
      "publishedAt": "2022-10-09T09:30:00Z",
      "content": "With the financial-aid season in swing, many families will find themselves borrowing to pay for higher education.\r\nDone strategically, it can be a sound financial decision (even apart from any loan-f… [+209 chars]"
    },
    {
      "source": {
        "id": "the-wall-street-journal",
        "name": "The Wall Street Journal"
      },
      "author": "Yaroslav Trofimov in Kyiv, Ukraine, and Ann M. Simmons in Moscow",
      "title": "Crimea Bridge Explosion Disrupts Crucial Supply Route for Russian Forces - The Wall Street Journal",
      "description": "<ol><li>Crimea Bridge Explosion Disrupts Crucial Supply Route for Russian Forces  The Wall Street Journal\r\n</li><li>Surveillance footage captures large explosion on key bridge to Russian-annexed Crimea  CNN\r\n</li><li>Explosion rocks Kerch Bridge connecting Ru…",
      "url": "https://www.wsj.com/articles/major-explosion-hits-the-bridge-between-crimea-and-russia-halting-traffic-11665215052",
      "urlToImage": "https://images.wsj.net/im-640137/social",
      "publishedAt": "2022-10-08T19:07:00Z",
      "content": "A major explosion on Saturday severely damaged the bridge connecting Russias mainland to the occupied Crimean Peninsula, disrupting traffic on a crucial artery for the supply of fuel, military equipm… [+341 chars]"
    },
    {
      "source": {
        "id": "the-wall-street-journal",
        "name": "The Wall Street Journal"
      },
      "author": "Sune Engel Rasmussen",
      "title": "Iran Protests Reignite as Universities, Schools Reopen - The Wall Street Journal",
      "description": "<ol><li>Iran Protests Reignite as Universities, Schools Reopen  The Wall Street Journal\r\n</li><li>Women students tell Iran's president to 'get lost' as unrest rages  Reuters.com\r\n</li><li>Renewed outrage after Amnesty Intl. says 16-year-old protester beaten t…",
      "url": "https://www.wsj.com/articles/iran-protests-reignite-as-universities-schools-reopen-11665242835",
      "urlToImage": "https://images.wsj.net/im-640124/social",
      "publishedAt": "2022-10-08T17:47:00Z",
      "content": "Protests flared anew across Iran and shops closed in a broadening strike on Saturday, as President Ebrahim Raisi repeated unfounded accusations that the Islamic Republics foreign enemies were behind … [+284 chars]"
    },
    {
      "source": {
        "id": "the-wall-street-journal",
        "name": "The Wall Street Journal"
      },
      "author": "wsj",
      "title": "Choked-Up Yards and Trailer Shortages Box In Truckers...",
      "description": "For operators like Mateo Carrera, Chicago-area freight bottlenecks mean scarce supply of critical equipment, pre-dawn drives and long waits at overflowing rail and container terminals",
      "url": "https://www.wsj.com/articles/choked-up-yards-and-trailer-shortages-box-in-americas-truckers-11665226803",
      "urlToImage": "https://images.wsj.net/im-638367/social",
      "publishedAt": "2022-10-08T14:00:03Z",
      "content": "Choked-Up Yards and Trailer Shortages Box In America’s Truckers Mateo Carrera climbed into his white Volvo truck in Joliet, Ill., around 3:30 a.m. one Friday late last month, and drove on dark roads … [+7182 chars]"
    },
    {
      "source": {
        "id": "the-wall-street-journal",
        "name": "The Wall Street Journal"
      },
      "author": "wsj",
      "title": "Fed's Inflation Fight Has Economists Fearing Unnecessarily Deep Downturn...",
      "description": "Rapid rate increases provide less time for central bankers to study their economic effects.",
      "url": "https://www.wsj.com/articles/feds-inflation-fight-has-some-economists-fearing-an-unnecessarily-deep-downturn-11665197755",
      "urlToImage": "https://images.wsj.net/im-639400/social",
      "publishedAt": "2022-10-08T14:00:03Z",
      "content": "Fed’s Inflation Fight Has Some Economists Fearing an Unnecessarily Deep DownturnListen to article(2 minutes)Some economists fear the Federal Reserve—humbled after waiting too long to withdraw its sup… [+1074 chars]"
    },
    {
      "source": {
        "id": "the-wall-street-journal",
        "name": "The Wall Street Journal"
      },
      "author": "wsj",
      "title": "The Secretive Body at Center of Fight for Golf's Future...",
      "description": "LIV Golf’s quest to get accredited by the Official World Golf Ranking brings the biggest power players in the sport inside the same battle—with enormous implications.",
      "url": "https://www.wsj.com/articles/liv-golf-owgr-pga-tour-11665165563",
      "urlToImage": "https://images.wsj.net/im-639444/social",
      "publishedAt": "2022-10-08T14:00:03Z",
      "content": "The Secretive Body at the Center of the Fight for Golf’s FutureListen to article(2 minutes)LIV Golf made a curious decision in the past week to partner with a little-known golf tour that hasn’t stage… [+1020 chars]"
    },
    {
      "source": {
        "id": "the-wall-street-journal",
        "name": "The Wall Street Journal"
      },
      "author": "wsj",
      "title": "Military Teaches Living Off Land to Feed Future Warriors...",
      "description": "Military leaders know they can’t rely on long supply chains in future wars, so they are teaching the lost art of foraging.",
      "url": "https://www.wsj.com/articles/u-s-military-teaches-living-off-the-land-to-feed-future-warriors-11665234380",
      "urlToImage": "https://images.wsj.net/im-639900/social",
      "publishedAt": "2022-10-08T14:00:03Z",
      "content": "U.S. Military Teaches Living Off the Land to Feed Future WarriorsListen to article(2 minutes)CRIPPLE CREEK, Colo.—On the first day of training in the mountain forest on a recent fall day, Army Spc. J… [+1105 chars]"
    },
    {
      "source": {
        "id": "the-wall-street-journal",
        "name": "The Wall Street Journal"
      },
      "author": "Suzanne McGee",
      "title": "Here Are the Few Stock-Fund Managers Who Managed to Post Gains Over the Past Year",
      "description": "The winning manager believes that we’re in the midst of a massive economic and market  transformation",
      "url": "https://www.wsj.com/articles/stock-fund-managers-who-managed-to-post-gains-over-past-year-11665193911",
      "urlToImage": "https://images.wsj.net/im-639336/social",
      "publishedAt": "2022-10-08T13:00:00Z",
      "content": "Many stock-fund managers can spin tales of how they triumphed over a bear market. Few, however, have encountered the kind of nightmare market they now are confronting.\r\nOnly the most stubborn contrar… [+228 chars]"
    },
    {
      "source": {
        "id": "the-wall-street-journal",
        "name": "The Wall Street Journal"
      },
      "author": "Andrew Scurria, Alexander Saeedy, Patricia Garip",
      "title": "Venezuela’s U.S. Creditors Take Small Comfort From Sanctions Relief",
      "description": "Washington’s opening to Venezuela points to a possible restructuring, but does little for creditors in the short term",
      "url": "https://www.wsj.com/articles/venezuelas-u-s-creditors-take-small-comfort-from-sanctions-relief-11665230401",
      "urlToImage": "https://images.wsj.net/im-639407/social",
      "publishedAt": "2022-10-08T12:00:00Z",
      "content": "Venezuelas creditors welcomed its potential rapprochement with the U.S. but still face risks and uncertainties in collecting from the South American countrys bankrupt government as its relations with… [+277 chars]"
    },
    {
      "source": {
        "id": "the-wall-street-journal",
        "name": "The Wall Street Journal"
      },
      "author": "Rachel Wolfe Photographs by Pat Jarrett  for The Wall Street Journal",
      "title": "The Business of Selling Toys to Your Inner Child - The Wall Street Journal",
      "description": "From American Girl to Build-A-Bear, companies that cater to children are tailoring more products and marketing around adult consumers who want toys for themselves",
      "url": "https://www.wsj.com/articles/the-business-of-selling-toys-to-your-inner-child-11665201646",
      "urlToImage": "https://images.wsj.net/im-638789/social",
      "publishedAt": "2022-10-08T04:00:00Z",
      "content": "Mattel Inc.s American Girl now has new adult cocktails at its in-store cafes and grown-up dresses that mimic outfits worn by its dolls. Lego A/S has more than 100 sets designed specifically for adult… [+715 chars]"
    },
    {
      "source": {
        "id": "the-wall-street-journal",
        "name": "The Wall Street Journal"
      },
      "author": "Nick Timiraos",
      "title": "9月就业报告使美联储有望再次大幅加息 - Wall Street Journal",
      "description": "<ol><li>9月就业报告使美联储有望再次大幅加息  Wall Street Journal\r\n</li><li>美国9月失业率为3.5%|美国|劳动力市场|失业  瞭望东方周刊\r\n</li><li>今日财经市场5件大事：万众瞩目！非农就业报告公布在即提供者Investing.com  英为财情\r\n</li><li>美国9月份新增就业岗位放缓至26.3万个  Wall Street Journal\r\n</li><li>超预期！美联储决议前关键数据出炉！美股道指重挫460点，美元指数直线拉升，原油飙升2%  Si…",
      "url": "https://cn.wsj.com/articles/9月就业报告使美联储有望再次大幅加息-11665190805",
      "urlToImage": "https://images.wsj.net/im-636578/social",
      "publishedAt": "2022-10-08T01:00:00Z",
      "content": "9\r\n926.35\r\n83.7%93.5%980.3%5%\r\n40\r\n..."
    },
    {
      "source": {
        "id": "the-wall-street-journal",
        "name": "The Wall Street Journal"
      },
      "author": "Sean Mclain",
      "title": "Rivian Is Recalling Nearly All of Its Vehicles",
      "description": "Auto maker says improperly installed fastener could cause a loss of steering control.",
      "url": "https://www.wsj.com/articles/rivian-is-recalling-nearly-all-of-its-vehicles-11665188392",
      "urlToImage": "https://images.wsj.net/im-639956/social",
      "publishedAt": "2022-10-08T00:19:00Z",
      "content": "Rivian Automotive is recalling nearly all of its vehicles to address a potential problem that could cause customers to lose steering control, the company said Friday.\r\nThe electric truck and SUV make… [+251 chars]"
    },
    {
      "source": {
        "id": "the-wall-street-journal",
        "name": "The Wall Street Journal"
      },
      "author": "Ben Eisen and Dean Seal",
      "title": "Bank of America to Pay $1.84 Billion to Settle Last Major Mortgage-Crisis Suit",
      "description": "The bank will pay $1.84 billion to resolve claims by Ambac Financial that mortgage-backed securities Ambac insured were backed by poorly underwritten loans.",
      "url": "https://www.wsj.com/articles/ambac-settles-with-bank-of-america-for-1-84-billion-11665145905",
      "urlToImage": "https://images.wsj.net/im-639182/social",
      "publishedAt": "2022-10-07T20:25:00Z",
      "content": "Bank of America closed the door on its last major litigation over mortgage bonds that were at the heart of the financial crisis of 2008.\r\nThe Charlotte, N.C., bank said Friday it would pay $1.84 bill… [+180 chars]"
    },
    {
      "source": {
        "id": "the-wall-street-journal",
        "name": "The Wall Street Journal"
      },
      "author": "wsj",
      "title": "Why Dates and Times Seem to Lose Their Meaning...",
      "description": "The Covid-19 pandemic and other traumatic events can cause days to blur, a sign of stress.",
      "url": "https://www.wsj.com/articles/why-dates-and-times-seem-to-lose-their-meaning-11665135002",
      "urlToImage": "https://images.wsj.net/im-638661/social",
      "publishedAt": "2022-10-07T12:00:03Z",
      "content": "Why Dates and Times Seem to Lose Their MeaningListen to article(2 minutes)The dates on the calendar and the time on a clock are some of the most ubiquitous and easily understood numbers in our lives.… [+965 chars]"
    },
    {
      "source": {
        "id": "the-wall-street-journal",
        "name": "The Wall Street Journal"
      },
      "author": "Peggy Noonan",
      "title": "NOONAN: Why He Shouldn't Have Run...",
      "description": "NOONAN: Why He Shouldn't Have Run...\r\n\n \n \n \n (Second column, 11th story, link)\r\n\n \r\n\n \r\n\n \n Related stories:Republican crisis in Herschel Walker race was nearly 2 years in making...\r\nBABY MAMA DRAMA...\r\nChristian fans unfazed by revelations...\r\nKari Lake cam…",
      "url": "https://www.wsj.com/articles/why-herschel-walker-shouldnt-have-run-senate-race-midterms-son-wife-family-christian-cindy-grossman-mental-health-gop-11665092390",
      "urlToImage": "https://images.wsj.net/im-638834/social",
      "publishedAt": "2022-10-07T03:46:39Z",
      "content": "Peggy Noonan is an opinion columnist at the Wall Street Journal where her column, \"Declarations,\" has run since 2000. \r\nShe was awarded the Pulitzer Prize for Commentary in 2017.  A political analyst… [+1168 chars]"
    },
    {
      "source": {
        "id": "the-wall-street-journal",
        "name": "The Wall Street Journal"
      },
      "author": "Sadie Gurman and Alex Leary",
      "title": "Still seeking...",
      "description": "Still seeking...\r\n\n \n \n \n (First column, 2nd story, link)\r\n\n \r\n\n \r\n\n \n Related stories:Justice Dept. Believes Trump Has MORE Documents...",
      "url": "https://www.wsj.com/articles/trump-hasnt-returned-all-documents-justice-department-officials-believe-11665107525",
      "urlToImage": "https://images.wsj.net/im-639040/social",
      "publishedAt": "2022-10-07T03:46:37Z",
      "content": "A senior Justice Department official recently told \r\nDonald Trumps legal team that law-enforcement officials dont believe the former president returned all of the government documents he took with hi… [+589 chars]"
    },
    {
      "source": {
        "id": "the-wall-street-journal",
        "name": "The Wall Street Journal"
      },
      "author": "Timothy Puko",
      "title": "拜登在欧佩克+决定大幅减产石油后权衡反击方式 - Wall Street Journal",
      "description": "<ol><li>拜登在欧佩克+决定大幅减产石油后权衡反击方式  Wall Street Journal\r\n</li><li>产油国联盟大幅减产激怒美国白宫指责减产短视并酝酿对抗  瞭望东方周刊\r\n</li><li>2年来最大力度OPEC+减产200万桶石油：希望油价涨回去  快科技\r\n</li><li>助力俄罗斯并对拜登说不：欧佩克宣布削减石油产量  美国之音中文网 - VOA Mandarin\r\n</li><li>美国白宫回应欧佩克+减产决定：下月再向市场抛储1000万桶  瞭望东方周刊\r\n</li><li>在…",
      "url": "https://cn.wsj.com/articles/拜登在欧佩克+决定大幅减产石油后权衡反击方式-11665100205",
      "urlToImage": "https://images.wsj.net/im-638114/social",
      "publishedAt": "2022-10-06T23:50:00Z",
      "content": "(Organization of the Petroleum Exporting Countries, )\r\n(WTO)\r\n+200\r\n..."
    },
    {
      "source": {
        "id": "the-wall-street-journal",
        "name": "The Wall Street Journal"
      },
      "author": "Bojan Pancevski",
      "title": "调查人员称北溪管道的爆炸或是蓄意所为 - Wall Street Journal",
      "description": "<ol><li>调查人员称北溪管道的爆炸或是蓄意所为  Wall Street Journal\r\n</li><li>德国警方：北溪天然气管遭国家蓄意破坏  RFI - 法国国际广播电台\r\n</li><li>瑞典检察院：“北溪”管道遭“蓄意破坏”的嫌疑增加  环球网\r\n</li><li>美专家：美国最可能是“北溪”泄漏肇事者  瞭望东方周刊\r\n</li><li>瑞典找到北溪管道爆炸证据   Lianhe Zaobao\r\n</li><li>在Google 新闻上查看完整报道</li></ol>",
      "url": "https://cn.wsj.com/articles/调查人员称北溪管道的爆炸或是蓄意所为-11665099604",
      "urlToImage": "https://images.wsj.net/im-638349/social",
      "publishedAt": "2022-10-06T23:45:00Z",
      "content": ""
    },
    {
      "source": {
        "id": "the-wall-street-journal",
        "name": "The Wall Street Journal"
      },
      "author": "Robbie Whelan",
      "title": "Netflix to Show ‘Knives Out’ Sequel in Major Theaters One Month Before Streaming Release",
      "description": "The move marks the first time a Netflix film runs in AMC and Regal theaters, which have long refused to show the streaming giant’s titles.",
      "url": "https://www.wsj.com/articles/netflix-to-show-knives-out-sequel-in-major-theaters-one-month-before-streaming-release-11665095431",
      "urlToImage": "https://images.wsj.net/im-638830/social",
      "publishedAt": "2022-10-06T22:55:16Z",
      "content": "Netflix will release the sequel to murder mystery Knives Out in hundreds of theaters for one week around Thanksgiving, a month before it debuts on its streaming service, an unusual move for a company… [+259 chars]"
    },
    {
      "source": {
        "id": "the-wall-street-journal",
        "name": "The Wall Street Journal"
      },
      "author": "Marc Vartabedian",
      "title": "A Supply-Chain Tech Startup Nets $100 Million - The Wall Street Journal",
      "description": "Altana, which uses AI to help companies manage their supply chains, drew investors despite a tough dealmaking environment",
      "url": "https://www.wsj.com/articles/a-supply-chain-tech-startup-nets-100-million-11665096182",
      "urlToImage": "https://images.wsj.net/im-638923/social",
      "publishedAt": "2022-10-06T22:43:00Z",
      "content": "Altana Technologies Inc., a supply-chain management software startup, has raised $100 million, the latest venture investment in a company aiming to streamline logistics.\r\nAltana says its software off… [+315 chars]"
    },
    {
      "source": {
        "id": "the-wall-street-journal",
        "name": "The Wall Street Journal"
      },
      "author": "The Editorial Board",
      "title": "Biden, Venezuela and the Oil Dictators - WSJ - The Wall Street Journal",
      "description": "<ol><li>Biden, Venezuela and the Oil Dictators - WSJ  The Wall Street Journal\r\n</li><li>U.S. expected to ease sanctions on Venezuela for oil: Report  Fox News\r\n</li><li>Chevron Faces Tough Job Restarting Venezuela's Damaged Oil Fields  The Wall Street Journal…",
      "url": "https://www.wsj.com/articles/joe-biden-and-the-oil-dictators-venezuela-nicolas-maduro-oil-supply-opec-energy-production-11665073129",
      "urlToImage": "https://images.wsj.net/im-638912/social",
      "publishedAt": "2022-10-06T22:41:00Z",
      "content": "The madness of the Biden Administrations energy policy has been horrifying to watch, like a car crash except all Americans are passengers. The latest bizarre twist is that the White House may ease sa… [+384 chars]"
    },
    {
      "source": {
        "id": "the-wall-street-journal",
        "name": "The Wall Street Journal"
      },
      "author": "Aruna Viswanatha, James T. Areddy and Sadie Gurman",
      "title": "Prosecutors Hold Off Final Hunter Biden Case Decision Amid Talks With Defense Lawyers - The Wall Street Journal",
      "description": "<ol><li>Prosecutors Hold Off Final Hunter Biden Case Decision Amid Talks With Defense Lawyers  The Wall Street Journal\r\n</li><li>Feds weigh charges against Hunter Biden, outcome of yearslong case could be 'imminent': source  Fox News\r\n</li><li>In Hunter Biden…",
      "url": "https://www.wsj.com/articles/hunter-biden-case-decision-paused-amid-discussions-between-defense-lawyers-and-prosecutors-11665094544",
      "urlToImage": "https://images.wsj.net/im-638792/social",
      "publishedAt": "2022-10-06T22:15:00Z",
      "content": "Prosecutors are holding off on a final decision on whether to bring a case against President Bidens son, Hunter, while they review defense evidence in the long-running investigation, people familiar … [+268 chars]"
    },
    {
      "source": {
        "id": "the-wall-street-journal",
        "name": "The Wall Street Journal"
      },
      "author": "Asa Fitch",
      "title": "AMD Cuts Revenue Forecast Amid Worst Slump in PC Shipments in Years",
      "description": "The company cites a weaker-than-expected PC market and “significant inventory correction actions across the PC supply chain.”",
      "url": "https://www.wsj.com/articles/amd-reports-quarterly-sales-below-guidance-as-pc-market-weakens-11665088494",
      "urlToImage": "https://images.wsj.net/im-638817/social",
      "publishedAt": "2022-10-06T20:56:00Z",
      "content": "Advanced Micro Devices cut its revenue forecast for the most recent quarter citing weaker-than-expected demand for the personal computers that use its chips.\r\nThe chip maker, which sells central proc… [+238 chars]"
    },
    {
      "source": {
        "id": "the-wall-street-journal",
        "name": "The Wall Street Journal"
      },
      "author": "Stephanie Armour",
      "title": "Biden Plans to Pardon People Convicted of Simple Marijuana Possession",
      "description": "President Biden said he would pardon all prior federal offenses of simple possession of marijuana and will call on federal regulators to review how the drug is classified.",
      "url": "https://www.wsj.com/articles/biden-plans-to-pardon-people-convicted-of-simple-marijuana-possession-11665083338",
      "urlToImage": "https://images.wsj.net/im-638673/social",
      "publishedAt": "2022-10-06T19:11:11Z",
      "content": "President Biden said on Thursday he will pardon all prior federal offenses of simple possession of marijuana and will call on federal regulators to review how the drug is classified.\r\nThe pardons wil… [+228 chars]"
    },
    {
      "source": {
        "id": "the-wall-street-journal",
        "name": "The Wall Street Journal"
      },
      "author": "Niharika Mandhana",
      "title": "Thailand Mass Shooting at Child-Care Center Leaves at Least 36 Dead - The Wall Street Journal",
      "description": "<ol><li>Thailand Mass Shooting at Child-Care Center Leaves at Least 36 Dead  The Wall Street Journal\r\n</li><li>Dozens of children killed by fired police officer at Thailand daycare  KHOU 11\r\n</li><li>Dozens of children among at least 36 people killed in child…",
      "url": "https://www.wsj.com/articles/thailand-child-care-center-shooting-leaves-at-least-32-dead-11665045559",
      "urlToImage": "https://images.wsj.net/im-638237/social",
      "publishedAt": "2022-10-06T16:45:00Z",
      "content": "A former police officer opened fire at a child-care center in northeast Thailand, used a knife to stab people and continued shooting on the streets as he drove off, leaving at least 36 dead, includin… [+148 chars]"
    },
    {
      "source": {
        "id": "the-wall-street-journal",
        "name": "The Wall Street Journal"
      },
      "author": "Salvador Rodriguez",
      "title": "TikTok Parent ByteDance Sees Losses Swell in Push for Growth",
      "description": "The social-media giant saw its operating losses more than triple last year to above $7 billion.",
      "url": "https://www.wsj.com/articles/tiktok-parent-bytedance-sees-losses-swell-in-push-for-growth-11665071238",
      "urlToImage": "https://images.wsj.net/im-637916/social",
      "publishedAt": "2022-10-06T15:48:50Z",
      "content": "TikTok parent ByteDance Ltd. saw its operating losses more than triple last year to above $7 billion as it spent heavily to continue its torrid growth, according to a financial report shared with emp… [+217 chars]"
    },
    {
      "source": {
        "id": "the-wall-street-journal",
        "name": "The Wall Street Journal"
      },
      "author": "wsj",
      "title": "Schools Face Increase in Gun Confiscations, Shootings, Hoaxes...",
      "description": "The rise from the levels of prepandemic years reflects broader societal gun violence and student behavioral problems, school officials say.",
      "url": "https://www.wsj.com/articles/schools-face-increase-in-gun-confiscations-shootings-and-hoaxes-11665057602",
      "urlToImage": "https://images.wsj.net/im-637139/social",
      "publishedAt": "2022-10-06T13:00:04Z",
      "content": "Schools Face Increase in Gun Confiscations, Shootings and HoaxesListen to article(2 minutes)A rise in gun-related incidents at school campuses across the country this year has rattled parents, studen… [+1058 chars]"
    },
    {
      "source": {
        "id": "the-wall-street-journal",
        "name": "The Wall Street Journal"
      },
      "author": "wsj",
      "title": "Internal Survey Finds U.S. Diplomats Face Widespread Discrimination, Harassment...",
      "description": "Civil servants and foreign-service staff say leaders remain unwilling to take steps to increase diversity and address workplace issues.",
      "url": "https://www.wsj.com/articles/discrimination-and-harassment-widely-reported-by-u-s-diplomats-internal-survey-finds-11665057603",
      "urlToImage": "https://images.wsj.net/im-637713/social",
      "publishedAt": "2022-10-06T13:00:04Z",
      "content": "WSJ News Exclusive | Discrimination and Harassment Widely Reported by U.S. Diplomats, Internal Survey Finds Listen to article(2 minutes)WASHINGTON—Nearly half of all employees at the U.S. State Depar… [+1161 chars]"
    },
    {
      "source": {
        "id": "the-wall-street-journal",
        "name": "The Wall Street Journal"
      },
      "author": "Sharon Terlep",
      "title": "Peloton to Cut Another 500 Jobs in Last Bid for Turnaround",
      "description": "Chief Executive Barry McCarthy said the company has six months to prove it can survive on its own.",
      "url": "https://www.wsj.com/articles/peloton-to-cut-another-500-jobs-in-last-bid-for-turnaround-11665011471",
      "urlToImage": "https://images.wsj.net/im-632016/social",
      "publishedAt": "2022-10-06T11:05:00Z",
      "content": "Peloton Interactive said it plans to cut about 500 jobs, roughly 12% of its remaining workforce, in the companys fourth round of layoffs this year as the connected fitness-equipment maker tries to re… [+260 chars]"
    },
    {
      "source": {
        "id": "the-wall-street-journal",
        "name": "The Wall Street Journal"
      },
      "author": "Benoît Morenne",
      "title": "U.S. Gasoline Prices Are Climbing Again and May Get Worse",
      "description": "Gasoline prices are ticking up after a roughly 100-day decline, threatening to inflict new pain on consumers who have been grappling with widespread inflation for more than a year.",
      "url": "https://www.wsj.com/articles/u-s-gasoline-prices-are-climbing-again-and-may-get-worse-11665048601",
      "urlToImage": "https://images.wsj.net/im-637938/social",
      "publishedAt": "2022-10-06T09:53:35Z",
      "content": "U.S. gasoline prices are ticking up after a roughly 100-day decline, threatening to inflict new pain on consumers who have been grappling with widespread inflation for more than a year.\r\nMaintenance … [+304 chars]"
    },
    {
      "source": {
        "id": "the-wall-street-journal",
        "name": "The Wall Street Journal"
      },
      "author": "Jenny Strasburg",
      "title": "Shell Braces for Profit Hit From Volatile Natural-Gas Prices, Rising Costs",
      "description": "The London-based oil company said the pricing and cost swings from shortfalls of liquefied natural gas will likely cut into profit from its huge gas business, typically its biggest cash generator.",
      "url": "https://www.wsj.com/articles/shell-braces-for-profit-hit-from-volatile-natural-gas-prices-rising-costs-11665046849",
      "urlToImage": "https://images.wsj.net/im-638204/social",
      "publishedAt": "2022-10-06T09:00:00Z",
      "content": "Shell PLC said it expects its third-quarter earnings to be hit by significantly lower profit from trading gas because of market volatility as well as \r\nhigher costs for delivering fuel amid a global … [+486 chars]"
    },
    {
      "source": {
        "id": "the-wall-street-journal",
        "name": "The Wall Street Journal"
      },
      "author": "Yifan Wang",
      "title": "电动汽车电池制造商中创新航香港上市首日下跌 - Wall Street Journal",
      "description": "<ol><li>电动汽车电池制造商中创新航香港上市首日下跌  Wall Street Journal\r\n</li><li>中创新航将通过香港IPO筹资约12.6亿美元  Wall Street Journal\r\n</li><li>在Google 新闻上查看完整报道</li></ol>",
      "url": "https://cn.wsj.com/articles/电动汽车电池制造商中创新航香港上市首日下跌-11665027604",
      "urlToImage": "https://images.wsj.net/im-621721/social",
      "publishedAt": "2022-10-06T04:00:00Z",
      "content": "(CALB Co., Ltd., 3931.HK, )\r\n1.6%37.404.7638.00\r\n12.6(IPO)\r\n(Zhejiang..."
    },
    {
      "source": {
        "id": "the-wall-street-journal",
        "name": "The Wall Street Journal"
      },
      "author": "Cara Lombardo, Alexa Corse",
      "title": "马斯克和Twitter最近几周曾讨论440亿美元收购案的降价事宜 - Wall Street Journal",
      "description": "<ol><li>马斯克和Twitter最近几周曾讨论440亿美元收购案的降价事宜  Wall Street Journal\r\n</li><li>马斯克被曝以原价完成收购推特股票大涨  RFI - 法国国际广播电台\r\n</li><li>戏剧性逆转，又同意买Twitter，马斯克葫芦里卖的什么药？  华尔街见闻\r\n</li><li>马斯克提议按最初条款完成收购Twitter的交易  Wall Street Journal\r\n</li><li>一波三折马斯克又要“原价”买推特了| DW | 05.10.2022  DW…",
      "url": "https://cn.wsj.com/articles/马斯克和twitter最近几周曾讨论440亿美元收购案的降价事宜-11665019805",
      "urlToImage": "https://images.wsj.net/im-638143/social",
      "publishedAt": "2022-10-06T02:15:00Z",
      "content": "(Elon Musk)Twitter Inc. (TWTR)440\r\n425Twitter\r\n1017\r\n..."
    },
    {
      "source": {
        "id": "the-wall-street-journal",
        "name": "The Wall Street Journal"
      },
      "author": "Timothy W. Martin",
      "title": "朝鲜在东海岸试射两枚短程弹道导弹 - Wall Street Journal",
      "description": "<ol><li>朝鲜在东海岸试射两枚短程弹道导弹  Wall Street Journal\r\n</li><li>联合国安理会就朝鲜导弹飞越日本召开紧急会议  美国之音中文网 - VOA Mandarin\r\n</li><li>回应朝鲜挑衅韩国战机发射2枚定向攻击炸弹  RFI - 法国国际广播电台\r\n</li><li>朝鲜射弹后，韩美做了这两件事  瞭望东方周刊\r\n</li><li>朝鲜发射导弹飞越日本上空，让国际社会决心受到考验  Wall Street Journal\r\n</li><li>在Google 新闻上…",
      "url": "https://cn.wsj.com/articles/朝鲜在东海岸试射两枚短程弹道导弹-11665018905",
      "urlToImage": "https://images.wsj.net/im-638132/social",
      "publishedAt": "2022-10-06T01:15:00Z",
      "content": "12\r\n6:016:23621002173493150500805\r\n..."
    },
    {
      "source": {
        "id": "the-wall-street-journal",
        "name": "The Wall Street Journal"
      },
      "author": "Trefor Moss",
      "title": "三位科学家因发展点击化学而获诺贝尔奖 - Wall Street Journal",
      "description": "<ol><li>三位科学家因发展点击化学而获诺贝尔奖  Wall Street Journal\r\n</li><li>三位科学家分享2022年诺贝尔化学奖，其中一人二次获奖  RFI - 法国国际广播电台\r\n</li><li>中国“量子之父”的导师，拿了诺贝尔奖  瞭望东方周刊\r\n</li><li>三位科学家获得2022年诺贝尔物理学奖| DW | 04.10.2022  DW\r\n</li><li>迟来的荣誉！三位科学家获诺贝尔物理学奖 他们证明爱因斯坦错了- 人物  cnBeta\r\n</li><li>在Googl…",
      "url": "https://cn.wsj.com/articles/三位科学家因发展点击化学而获诺贝尔奖-11665018005",
      "urlToImage": "https://images.wsj.net/im-637455/social",
      "publishedAt": "2022-10-06T01:00:00Z",
      "content": "Carolyn BertozziMorten MeldalK. Barry Sharpless\r\nScripps ResearchSharpless2000Meldal\r\nBertozzi\r\n..."
    },
    {
      "source": {
        "id": "the-wall-street-journal",
        "name": "The Wall Street Journal"
      },
      "author": "Caitlin Ostroff",
      "title": "美国股市收低，打破两天连涨走势 - Wall Street Journal",
      "description": "<ol><li>美国股市收低，打破两天连涨走势  Wall Street Journal\r\n</li><li>隔夜市场回顾：黄金收低，美元和美国国债收益率上升  Wall Street Journal\r\n</li><li>在Google 新闻上查看完整报道</li></ol>",
      "url": "https://cn.wsj.com/articles/美国股市收低-打破两天连涨走势-11665012904",
      "urlToImage": "https://images.wsj.net/im-637441/social",
      "publishedAt": "2022-10-06T00:40:00Z",
      "content": "5007.650.2%3783.2827.770.2%11148.6442.450.1%30273.87\r\n50011\r\nTwitter..."
    },
    {
      "source": {
        "id": "the-wall-street-journal",
        "name": "The Wall Street Journal"
      },
      "author": "Vivian Salama",
      "title": "U.S. Plans to Ease Venezuela Sanctions, Enabling Chevron to Pump Oil",
      "description": "The Biden administration is preparing to scale down sanctions on Maduro’s authoritarian regime to allow Chevron to resume pumping oil there, according to multiple people familiar with the proposal.",
      "url": "https://www.wsj.com/articles/u-s-plans-to-ease-venezuela-sanctions-enabling-chevron-to-pump-oil-11665005719",
      "urlToImage": "https://images.wsj.net/im-638040/social",
      "publishedAt": "2022-10-05T21:37:21Z",
      "content": "The Biden administration is preparing to scale down sanctions on \r\nVenezuelas authoritarian regime to allow Chevronto resume pumping oil there, paving the way for a potential reopening of U.S. and Eu… [+691 chars]"
    },
    {
      "source": {
        "id": "the-wall-street-journal",
        "name": "The Wall Street Journal"
      },
      "author": "wsj",
      "title": "At Nation's Center: Small and Shrinking Missouri Town...",
      "description": "Hartville, with a population of 600, enjoys the attention it is getting as the U.S. ‘center of population,’ but it is not without its struggles.",
      "url": "https://www.wsj.com/articles/at-the-nations-center-a-small-and-shrinking-missouri-town-11664934697",
      "urlToImage": "https://images.wsj.net/im-637069/social",
      "publishedAt": "2022-10-05T18:00:07Z",
      "content": "At the Nation’s Center, a Small and Shrinking Missouri TownListen to article(1 minute)HARTVILLE, Mo.—This out-of-the-way place in the rolling foothills of the Ozark Mountains is at the center of it a… [+946 chars]"
    },
    {
      "source": {
        "id": "the-wall-street-journal",
        "name": "The Wall Street Journal"
      },
      "author": "Patrick Thomas",
      "title": "Tyson Foods to Close Chicago, South Dakota Offices, Relocate Employees",
      "description": "Rising costs are pressuring the meat giant’s bottom line after two years of soaring profit margins.",
      "url": "https://www.wsj.com/articles/tyson-foods-to-close-chicago-south-dakota-offices-relocate-employees-11664982024",
      "urlToImage": "https://images.wsj.net/im-637585/social",
      "publishedAt": "2022-10-05T16:52:00Z",
      "content": "Tyson Foods is closing several of its corporate offices across the country as rising costs pressure the meat giants bottom line after \r\ntwo years of soaring profit margins.Tyson said Wednesday that i… [+369 chars]"
    },
    {
      "source": {
        "id": "the-wall-street-journal",
        "name": "The Wall Street Journal"
      },
      "author": "Allison Prang",
      "title": "Facebook to Allow Users to Customize What Comes Into Their Timelines",
      "description": "The social-media company said users can now choose “show less” or “show more” on individual posts which will allow them to curate the type of content they see.",
      "url": "https://www.wsj.com/articles/facebook-to-allow-users-to-customize-what-comes-into-their-timelines-11664979588",
      "urlToImage": "https://images.wsj.net/im-637511/social",
      "publishedAt": "2022-10-05T15:07:27Z",
      "content": "Meta Platforms Inc. announced tweaks to the Facebook news feed Wednesday, in an attempt to give users more control over what they see on the platform.\r\nThe social-media company said users can now cho… [+249 chars]"
    },
    {
      "source": {
        "id": "the-wall-street-journal",
        "name": "The Wall Street Journal"
      },
      "author": "Jennifer Calfas",
      "title": "Alec Baldwin, 'Rust' Team Reach Settlement With Halyna Hutchins' Family",
      "description": "The \"Rust\" production team and actor Alec Baldwin reached a settlement with the family of Halyna Hutchins, the cinematographer who was killed on the set of the film last year, in a wrongful death lawsuit her family brought earlier this year, both parties said…",
      "url": "https://www.wsj.com/articles/alec-baldwin-rust-team-reach-settlement-with-halyna-hutchins-family-11664981252",
      "urlToImage": "https://images.wsj.net/im-637599/social",
      "publishedAt": "2022-10-05T15:05:01Z",
      "content": "The Rust production team and actor Alec Baldwin reached a settlement with the family of Halyna Hutchins, the cinematographer who was killed on the set of the film last year, in a wrongful death lawsu… [+242 chars]"
    },
    {
      "source": {
        "id": "the-wall-street-journal",
        "name": "The Wall Street Journal"
      },
      "author": "Tim Higgins",
      "title": "Former Apple Car Executive’s Battery Startup Plans $1.6 Billion Factory in Michigan",
      "description": "Our Next Energy, which involves several former leaders of Apple’s secretive car project, has plans for its factory to produce enough cells annually for 200,000 EVs by the end of 2027.",
      "url": "https://www.wsj.com/articles/former-apple-car-executives-battery-startup-plans-1-6-billion-factory-in-michigan-11664981419",
      "urlToImage": "https://images.wsj.net/im-637315/social",
      "publishedAt": "2022-10-05T14:50:00Z",
      "content": "Our Next Energy Inc., an electric-car battery startup involving several former leaders of Apple secretive car project, is planning to invest $1.6 billion into a factory in Michigan to make enough bat… [+367 chars]"
    },
    {
      "source": {
        "id": "the-wall-street-journal",
        "name": "The Wall Street Journal"
      },
      "author": "wsj",
      "title": "More People Waiting Until 40s or 50s to Get Married...",
      "description": "Many people who marry later in life say they weren’t interested in getting married earlier, were pursuing education and careers or were disillusioned by previous relationships.",
      "url": "https://www.wsj.com/articles/first-time-marriage-rise-age-40s-50s-11664925861",
      "urlToImage": "https://images.wsj.net/im-636916/social",
      "publishedAt": "2022-10-05T14:00:03Z",
      "content": "First-Time Marriages Are on the Rise for People in Their 40s and 50sListen to article(2 minutes)Beth Luchies and Ryan Gnus exchanged wedding vows in August under a driftwood arch on Vancouver Island,… [+735 chars]"
    },
    {
      "source": {
        "id": "the-wall-street-journal",
        "name": "The Wall Street Journal"
      },
      "author": "Zusha Elinson",
      "title": "Serial Tree Killer Baffles Oregon Community...",
      "description": "A task force is working to identify the  culprit responsible for the damage in the Portland suburb of Gresham.",
      "url": "https://www.wsj.com/articles/gresham-lumberjack-serial-tree-killer-baffles-oregon-community-11664949734",
      "urlToImage": "https://images.wsj.net/im-637125/social",
      "publishedAt": "2022-10-05T13:40:39Z",
      "content": "Mike Wallace has spent months scouring thousands of photos of a forest in Gresham, Ore., looking for clues to a mystery that has bedeviled the Portland suburb for more than a year: Who is the serial … [+315 chars]"
    },
    {
      "source": {
        "id": "the-wall-street-journal",
        "name": "The Wall Street Journal"
      },
      "author": "Clare Ansberry",
      "title": "More People Waiting Until 40s or 50s to Get Married...",
      "description": "Many people who marry later in life say they weren’t interested in getting married earlier, were pursuing education and careers or were disillusioned by previous relationships.",
      "url": "https://www.wsj.com/articles/more-people-are-waiting-until-their-40s-or-50s-to-get-married-11664925861",
      "urlToImage": "https://images.wsj.net/im-636916/social",
      "publishedAt": "2022-10-05T13:40:38Z",
      "content": "Beth Luchies and Ryan Gnus exchanged wedding vows in August under a driftwood arch on Vancouver Island, British Columbia. \r\nI never thought I would get married, says Beth, 42, years old, who had a sm… [+127 chars]"
    },
    {
      "source": {
        "id": "the-wall-street-journal",
        "name": "The Wall Street Journal"
      },
      "author": "Isabel Coles",
      "title": "Russia Uses Iranian-Made Drones to Strike Military Base Deep Inside Ukraine - The Wall Street Journal",
      "description": "<ol><li>Russia Uses Iranian-Made Drones to Strike Military Base Deep Inside Ukraine  The Wall Street Journal\r\n</li><li>Ukraine-Russia war: The latest maps and key developments  Yahoo News\r\n</li><li>Ukraine Regains Territory From Russian Forces In Kherson Regi…",
      "url": "https://www.wsj.com/articles/russia-uses-iranian-made-drones-to-strike-deep-inside-ukraine-11664965580",
      "urlToImage": "https://images.wsj.net/im-637424/social",
      "publishedAt": "2022-10-05T11:51:00Z",
      "content": "Russia used suicide drones to strike a military base deep inside Ukraine on Wednesday, posing a growing challenge for Kyiv as its forces \r\npressed advances in the south and east of the country.The he… [+413 chars]"
    },
    {
      "source": {
        "id": "the-wall-street-journal",
        "name": "The Wall Street Journal"
      },
      "author": "Cara Lombardo, Dana Cimilluca",
      "title": "马斯克提议按最初条款完成收购Twitter的交易 - Wall Street Journal",
      "description": "<ol><li>马斯克提议按最初条款完成收购Twitter的交易  Wall Street Journal\r\n</li><li>马斯克被曝以原价完成收购推特股票大涨  RFI - 法国国际广播电台\r\n</li><li>10月4日美股成交前20：马斯克确认推进收购推特交易  Sina\r\n</li><li>马斯克的收购能让Twitter“起死回生”吗？  Wall Street Journal\r\n</li><li>馬斯克擬以原報價完成收購 推特股票大漲  大纪元\r\n</li><li>在Google 新闻上查看完整报道…",
      "url": "https://cn.wsj.com/articles/马斯克提议按最初条款完成与twitter的交易-11664929505",
      "urlToImage": "https://images.wsj.net/im-636800/social",
      "publishedAt": "2022-10-05T04:30:00Z",
      "content": "(Elon Musk)Twitter Inc. (TWTR)440\r\n(Securities and Exchange Commission, SEC)Twitter\r\nTwitter54.20\r\n..."
    },
    {
      "source": {
        "id": "the-wall-street-journal",
        "name": "The Wall Street Journal"
      },
      "author": "Dasl Yoon, Timothy W. Martin",
      "title": "朝鲜发射导弹飞越日本上空，让国际社会决心受到考验 - Wall Street Journal",
      "description": "<ol><li>朝鲜发射导弹飞越日本上空，让国际社会决心受到考验  Wall Street Journal\r\n</li><li>回应朝鲜挑衅韩国战机发射2枚定向攻击炸弹  RFI - 法国国际广播电台\r\n</li><li>朝鲜导弹飞越北海道上空日本拉响警报| DW | 04.10.2022  DW\r\n</li><li>朝鲜升高试射导弹威慑时隔五年朝鲜导弹再次飞越日本国土  Caixin Global\r\n</li><li>美韩举行精确实弹打击演练应对朝鲜射弹两国防长通话  RFI - 法国国际广播电台\r\n</li>…",
      "url": "https://cn.wsj.com/articles/朝鲜发射导弹飞越日本上空-让国际社会决心受到考验-11664942105",
      "urlToImage": "https://images.wsj.net/im-636404/social",
      "publishedAt": "2022-10-05T03:55:00Z",
      "content": "(Joe Biden)(Fumio Kishida)(Jake Sullivan)\r\n-(Karine..."
    }
  ]
}